…
To find total weight of trash collected by professor trash wheel and the
total number of sports balls collected by mr. trash wheel in 2020

``` r
 sum(pull(professor_trash_wheel_df, weight_tons), na.rm = TRUE)
```

    ## [1] 190.12

``` r
   filter(mr_trash_wheel_df, year==2020)
```

    ## # A tibble: 72 × 15
    ##    dumpster month    year  date                weight_…¹ volum…² plast…³ polys…⁴
    ##       <dbl> <chr>    <chr> <dttm>                  <dbl>   <dbl>   <dbl>   <dbl>
    ##  1      381 January  2020  2020-01-18 00:00:00      2.75      15    3900    2100
    ##  2      382 January  2020  2020-01-18 00:00:00      1.8       15    2900    1800
    ##  3      383 January  2020  1900-01-20 00:00:00      2.9       15    1850    1100
    ##  4      384 January  2020  2020-01-27 00:00:00      2.54      15    3400    2400
    ##  5      385 January  2020  2020-01-27 00:00:00      2.18      15     980     900
    ##  6      386 January  2020  2020-01-27 00:00:00      3.24      15     750     640
    ##  7      387 January  2020  2020-01-27 00:00:00      3.07      15     500     440
    ##  8      388 January  2020  2020-01-30 00:00:00      2.8       15    3200    2400
    ##  9      389 January  2020  2020-01-30 00:00:00      2.8       15    3800    2700
    ## 10      390 February 2020  2020-02-10 00:00:00      1.9       15    1850     980
    ## # … with 62 more rows, 7 more variables: cigarette_butts <dbl>,
    ## #   glass_bottles <dbl>, grocery_bags <dbl>, chip_bags <dbl>,
    ## #   sports_balls <int>, homes_powered <dbl>, trash_wheel_type <chr>, and
    ## #   abbreviated variable names ¹​weight_tons, ²​volume_cubic_yards,
    ## #   ³​plastic_bottles, ⁴​polystyrene
…
